Place,Name,Sex,BirthDate,Age,Equipment,Division,BodyweightKg,WeightClassKg,Squat1Kg,Squat2Kg,Squat3Kg,Best3SquatKg,Bench1Kg,Bench2Kg,Bench3Kg,Bench4Kg,Best3BenchKg,Deadlift1Kg,Deadlift2Kg,Deadlift3Kg,Deadlift4Kg,Best3DeadliftKg,TotalKg,Event
1,Kristen Haney,F,1995-10-14,26,Wraps,Police/Fire,119.5,90+,62.5,85,100,100,52.5,55,60,62.5,60,85,125,140,145,140,300,SBD
1,Andrew Cooper #4,F,2011-07-09,11,Wraps,Youth 11-12,49.7,52,-65,65,-67.5,65,27.5,30,32.5,,32.5,72.5,77.5,-82.5,,77.5,175,SBD
1,Tawna Cepek,F,1979-10-26,42,Wraps,Masters 40-44,62.9,67.5,85,-95,-95,85,-47.5,50,52.5,,52.5,87.5,100,-115,,100,237.5,SBD
1,Kendra Christophene,F,1979-11-25,42,Wraps,Masters 40-44,70,75,60,-65,65,65,37.5,-50,-50,,37.5,85,92.5,-107.5,,92.5,195,SBD
1,Anne Smoot,F,1974-08-08,47,Wraps,Masters 45-49,66.6,67.5,85,90,-92.5,90,42.5,47.5,-50,,47.5,110,115,,,115,252.5,SBD
DQ,Lurene DuBois,F,1947-09-23,74,Wraps,Masters 70-74,85.7,90,,,,,42.5,-47.5,-47.5,,42.5,67.5,70,85,,85,,SBD
1,Jacqueline Davidson,F,1993-02-19,29,Wraps,Open,96.8,90+,80,92.5,102.5,102.5,42,52.5,-60,,52.5,102.5,125,132.5,,132.5,287.5,SBD
1,Heather Cline,F,1986-05-29,36,Wraps,Submasters 33-39,64.7,67.5,92.5,102.5,107.5,107.5,45,-50,50,,50,95,102.5,115,,115,272.5,SBD
1,Joey Bales,F,2008-08-14,13,Wraps,Teen 13-15,122.6,90+,102.5,112.5,132.5,132.5,52.5,60,70,,70,90,120,140,,140,342.5,SBD
1,Lurene DuBois,F,1947-09-23,74,Raw,Masters 70-74,85.7,90,,,,,42.5,-47.5,-47.5,,42.5,67.5,70,85,,85,127.5,BD
NS,Jennifer Thompson #3,F,1989-01-10,33,Raw,Open,,,,,,,,,,,,,,,,,,B
1,Daniella McQueen,F,2006-01-27,16,Raw,Teen 16-17,85.3,90,,,,,,,,,,62.5,67.5,72.5,,72.5,72.5,D
1,Steve Terry,M,1954-08-17,67,Raw,Masters 65-69,71.7,75,91,105,118,118,78,84,88,,88,136,148,155,,155,361,SBD
1,Tyler Meador,M,1989-08-30,32,Raw,Open,109.2,110,250,265,275,275,165,175,-177.5,,175,215,227.5,240,,240,690,SBD
1,Jessie Andrews,M,2000-02-26,22,Wraps,Juniors 20-23,78.1,82.5,142.5,155,-167.5,155,85,95,-100,,95,165,-182.5,195,,195,445,SBD
1,Matthew Thomas,M,1999-05-24,23,Wraps,Juniors 20-23,117.2,125,220,-230,230,230,172.5,182.5,-190,,182.5,192.5,212.5,227.5,,227.5,640,SBD
1,Paul Davenport,M,,,Wraps,Masters 40-44,109.8,110,227.5,240,252.5,252.5,190,-200,,,190,270,290,297.5,,297.5,740,SBD
1,Wesley Smith,M,1970-03-07,52,Wraps,Masters 50-54,139.7,140,265,277,285,285,165,180,-187.5,,180,-280,280,292.5,,292.5,757.5,SBD
1,Andrew Perry,M,1992-07-02,30,Wraps,Open,66.6,67.5,150,155,160,160,-95,95,97.5,,97.5,172.5,185,187.5,,187.5,445,SBD
1,Jordan Gilbert,M,1993-11-24,28,Wraps,Open,74.5,75,112.5,-127.5,127.5,127.5,100,115,-120,,115,145,165,-180,,165,407.5,SBD
1,Skyler Martin,M,2004-02-06,18,Wraps,Open,81.8,82.5,185,195,205,205,-140,140,-155,,140,220,230,,,230,575,SBD
1,Morgan Coleman,M,,,Wraps,Open,88.9,90,197.5,215,225,225,132.5,147.5,-155,,147.5,245,255,265,,265,637.5,SBD
1,Cody Weseman,M,1993-07-27,28,Wraps,Open,99.3,100,200,217.5,230,230,160,175,-182.5,,175,215,232.5,242.5,,242.5,647.5,SBD
2,Reed Smith,M,1986-05-07,36,Wraps,Open,98.7,100,182.5,195,200,200,140,150,155,,155,230,250,255,,255,610,SBD
3,Cullen Bryant,M,1993-09-19,28,Wraps,Open,98.5,100,-207.5,207.5,-227.5,207.5,125,132.5,,,132.5,247.5,-267.5,-267.5,,247.5,587.5,SBD
4,Matthew Smith #29,M,1991-07-03,31,Wraps,Open,98.9,100,195,210,-227.5,210,120,-127.5,127.5,,127.5,180,197.5,-205,,197.5,535,SBD
G,Daniel Olajiga,M,1995-12-12,26,Wraps,Open,99.9,100,287.5,307.5,325,325,-130,130,,,130,295,317.5,-330,,317.5,772.5,SBD
1,Paul Davenport,M,,,Wraps,Open,109.8,110,227.5,240,252.5,252.5,190,-200,,,190,270,290,297.5,,297.5,740,SBD
2,Adam Rosson,M,1982-08-18,39,Wraps,Open,101.7,110,263.25,-280,280,280,145,157.5,170,,170,225,250,267.5,,267.5,717.5,SBD
3,Caleb Brown #2,M,1993-06-18,29,Wraps,Open,109.5,110,225,242.5,-255,242.5,155,167.5,175,,175,227.5,247.5,265,,265,682.5,SBD
1,Brian Phillips,M,1983-07-28,38,Wraps,Submasters 33-39,88.2,90,272.5,287.5,-295,287.5,175,182.5,-190,,182.5,227.5,242.5,250,-272.5,250,720,SBD
1,Reed Smith,M,1986-05-07,36,Wraps,Submasters 33-39,98.7,100,182.5,195,200,200,140,150,155,,155,230,250,255,,255,610,SBD
2,Joseph Cowan,M,1986-07-05,36,Wraps,Submasters 33-39,91.4,100,120,132.5,145,145,85,95,100,,100,147.5,170,-182.5,,170,415,SBD
1,Dakota Todd,M,2006-08-02,15,Wraps,Teen 13-15,72.5,75,-170,170,187.5,187.5,75,-82.5,85,,85,152.5,160,170,185,170,442.5,SBD
1,Jack Davenport,M,2004-07-16,17,Wraps,Teen 16-17,74.7,75,165,185,195,195,102.5,115,-125,,115,210.7,-227.5,-227.5,,210.7,520.7,SBD
1,Truman Leslie,M,2008-06-06,14,Wraps,Teen 13-15,79.6,82.5,145,-165,-165,145,85,100,-110,,100,165,182.5,,,182.5,427.5,SBD
1,Daniel Rice,M,2005-04-11,17,Wraps,Teen 16-17,95.3,100,190,-195,-195,190,110,-115,-115,,110,187.5,195,-205,,195,495,SBD
1,Skyler Martin,M,2004-02-06,18,Wraps,Teen 18-19,81.8,82.5,185,195,205,205,-140,140,-155,,140,220,230,,,230,575,SBD
1,Eric Hudson,M,2004-01-04,18,Wraps,Teen 18-19,98.1,100,175,182.5,192.5,192.5,122.5,132.5,-140,,132.5,220,230,237.5,,237.5,562.5,SBD
1,Josh Briden,M,2011-07-18,10,Wraps,Youth 9-10,37.2,39,37.2,42.5,-47.5,42.5,25,27.5,-30,,27.5,62.5,70,75,,75,145,SBD
NS,Graham Thompson,M,1986-08-18,35,Raw,Open,,,,,,,,,,,,,,,,,,B
