Division,WeightClassKg,Place,Name,Team,BodyweightKg,Best3SquatKg,Best3BenchKg,Best3DeadliftKg,TotalKg,Equipment,Event,Sex
Boys,51.71,1,Randy Trevino,Gregory-Portland,50.62,158.76,81.65,176.9,417.3,Single-ply,SBD,M
Boys,55.79,2,Randy Soliz,Hebbronville,51.8,136.08,81.65,163.29,381.02,Single-ply,SBD,M
Boys,51.71,3,Pete Olivarez,Orange Grove,51.17,133.81,83.91,138.35,356.07,Single-ply,SBD,M
Boys,51.71,4,Juan Cruz,Aransas Pass,47.72,102.06,56.7,113.4,272.16,Single-ply,SBD,M
Boys,51.71,5,Brennen McGuire,Agua Dulce,51.71,90.72,52.16,111.13,254.01,Single-ply,SBD,M
Boys,51.71,6,Manuel Cruz,Aransas Pass,41.19,72.57,45.36,102.06,219.99,Single-ply,SBD,M
Boys,51.71,7,Weston Skorrupa,Corpus Christi Calallen,49.08,52.16,52.16,86.18,190.51,Single-ply,SBD,M
Boys,51.71,DQ,Martin Cruz,San Diego,51.53,,,,,Single-ply,SBD,M
Boys,51.71,DQ,Jeremy Martinez,Robstown,48.44,88.45,,,,Single-ply,SBD,M
Boys,51.71,DQ,LA Gonzalez,Alice,50.08,,,,,Single-ply,SBD,M
Boys,55.79,1,Jared Medina,Banquete,55.16,149.69,79.38,163.29,392.36,Single-ply,SBD,M
Boys,55.79,2,Joe Castillo #4,Gregory-Portland,53.89,136.08,79.38,167.83,383.29,Single-ply,SBD,M
Boys,55.79,3,Patrick Ayala,Banquete,54.79,136.08,70.31,156.49,362.87,Single-ply,SBD,M
Boys,55.79,4,Eric Martinez,Freer,52.53,102.06,61.23,113.4,276.69,Single-ply,SBD,M
Boys,59.87,5,Mario Zarate,Kingsville King,55.88,92.99,61.23,99.79,254.01,Single-ply,SBD,M
Boys,55.79,6,Brody Carpenter,Skidmore-Tynan,53.07,79.38,45.36,88.45,213.19,Single-ply,SBD,M
Boys,67.13,1,Jacob de la Paz,Corpus Christi Calallen,60.06,192.78,95.25,183.7,471.74,Single-ply,SBD,M
Boys,59.87,2,Aaron Martinez,Corpus Christi Calallen,59.69,151.95,99.79,188.24,439.98,Single-ply,SBD,M
Boys,59.87,3,Anthony Huerta,Gregory-Portland,58.42,129.27,83.91,154.22,367.41,Single-ply,SBD,M
Boys,67.13,4,David Lee Zuniga,George West,59.96,142.88,72.57,145.15,360.61,Single-ply,SBD,M
Boys,59.87,5,Joseph Gonzales,Orange Grove,59.51,108.86,72.57,147.42,328.85,Single-ply,SBD,M
Boys,59.87,6,Devin Kelly,Aransas Pass,58.33,108.86,70.31,136.08,315.25,Single-ply,SBD,M
Boys,59.87,7,Reno Saenz,Hebbronville,59.15,111.13,61.23,129.27,301.64,Single-ply,SBD,M
Boys,59.87,DQ,Jose Lamas,Aransas Pass,57.79,83.91,63.5,,,Single-ply,SBD,M
Boys,59.87,DQ,Josh Baez,Falfurrias,59.87,142.88,92.99,,,Single-ply,SBD,M
Boys,59.87,DQ,Erasmo Aguilar,Alice,59.69,,,,,Single-ply,SBD,M
Boys,59.87,DQ,Armand Arriola,Alice,56.79,127.01,,,,Single-ply,SBD,M
Boys,59.87,DQ,Joseph Reyes,Alice,57.61,,,,,Single-ply,SBD,M
Boys,67.13,1,Arnold Bednorz,Freer,66.04,226.8,131.54,215.46,573.79,Single-ply,SBD,M
Boys,67.13,2,Marcos Casas,Falfurrias,62.69,174.63,90.72,190.51,455.86,Single-ply,SBD,M
Boys,67.13,3,Alex Rocha,Skidmore-Tynan,64.68,163.29,115.67,156.49,435.45,Single-ply,SBD,M
Boys,67.13,4,Jason Harries,Orange Grove,60.69,151.95,92.99,158.76,403.7,Single-ply,SBD,M
Boys,67.13,5,Alex Villapando,Alice,66.5,142.88,83.91,174.63,401.43,Single-ply,SBD,M
Boys,67.13,6,Jonathon Hernandez,Orange Grove,65.5,120.2,83.91,172.37,376.48,Single-ply,SBD,M
Boys,67.13,7,Baldo Duarte,George West,64.32,129.27,70.31,163.29,362.87,Single-ply,SBD,M
Boys,67.13,8,Candelario Segura,Ben Bolt-Palito Blanco,64.68,124.74,90.72,145.15,360.61,Single-ply,SBD,M
Boys,67.13,9,David Rojas,Ben Bolt-Palito Blanco,63.59,113.4,97.52,147.42,358.34,Single-ply,SBD,M
Boys,74.84,10,Nick Alvarez,Kingsville King,67.22,115.67,88.45,154.22,358.34,Single-ply,SBD,M
Boys,67.13,11,Fedrico Flores,Skidmore-Tynan,66.32,129.27,68.04,149.69,347,Single-ply,SBD,M
Boys,67.13,12,Nick Hernandez,Skidmore-Tynan,61.87,127.01,70.31,147.42,344.73,Single-ply,SBD,M
Boys,67.13,13,Damon Liendo,Orange Grove,64.41,124.74,81.65,131.54,337.93,Single-ply,SBD,M
Boys,74.84,14,Avery Balsterbaum,George West,67.31,111.13,104.33,117.93,333.39,Single-ply,SBD,M
Boys,67.13,15,Orlando Bernal,San Diego,67.13,120.2,68.04,129.27,317.51,Single-ply,SBD,M
Boys,67.13,DQ,Jordan Cole,Aransas Pass,64.41,,,,,Single-ply,SBD,M
Boys,67.13,DQ,AJ Jiminian,Agua Dulce,66.41,,,,,Single-ply,SBD,M
Boys,67.13,DQ,Joseph Canales,Alice,65.41,,,,,Single-ply,SBD,M
Boys,82.1,1,Jared Garcia,Corpus Christi Calallen,74.93,213.19,131.54,247.21,591.94,Single-ply,SBD,M
Boys,74.84,2,Ricky Benavidez,Banquete,74.66,208.65,147.42,233.6,589.67,Single-ply,SBD,M
Boys,74.84,3,Jonathan Gonzalez,San Diego,72.62,213.19,142.88,206.38,562.45,Single-ply,SBD,M
Boys,74.84,4,Jd Savanich,Corpus Christi Calallen,69.31,195.04,108.86,199.58,503.49,Single-ply,SBD,M
Boys,74.84,5,Gabriel Cantu,Corpus Christi Calallen,72.21,174.63,106.59,217.72,498.95,Single-ply,SBD,M
Boys,74.84,6,Damian Cisneros,Gregory-Portland,67.49,192.78,99.79,204.12,496.68,Single-ply,SBD,M
Boys,74.84,7,Raymond Huerta,Falfurrias,70.85,170.1,99.79,210.92,480.81,Single-ply,SBD,M
Boys,82.1,8,Link Emard,Corpus Christi Calallen,75.02,163.29,111.13,190.51,464.93,Single-ply,SBD,M
Boys,74.84,9,Rene Ruiz,Hebbronville,74.66,170.1,102.06,185.97,458.13,Single-ply,SBD,M
Boys,74.84,10,Luis Lopez #4,Ben Bolt-Palito Blanco,71.58,167.83,90.72,179.17,437.72,Single-ply,SBD,M
Boys,82.1,11,Gilbert Jasso,Robstown,75.02,142.88,95.25,195.04,433.18,Single-ply,SBD,M
Boys,74.84,12,John Ruth,Gregory-Portland,69.4,149.69,83.91,176.9,410.5,Single-ply,SBD,M
Boys,74.84,13,Nathanial McRac,Hebbronville,71.67,145.15,83.91,181.44,410.5,Single-ply,SBD,M
Boys,74.84,14,Oscar Olivarez,Robstown,68.13,142.88,102.06,158.76,403.7,Single-ply,SBD,M
Boys,74.84,15,Paul Torres,Aransas Pass,71.49,127.01,70.31,192.78,390.09,Single-ply,SBD,M
Boys,74.84,16,Lucas Mora,Falfurrias,74.75,124.74,74.84,183.7,383.29,Single-ply,SBD,M
Boys,82.1,17,John Vela,Kingsville King,75.02,145.15,81.65,154.22,381.02,Single-ply,SBD,M
Boys,74.84,18,Alex Rodriguez #3,Corpus Christi Calallen,68.49,149.69,72.57,154.22,376.48,Single-ply,SBD,M
Boys,74.84,19,Daniel Green,Gregory-Portland,72.76,131.54,83.91,158.76,374.21,Single-ply,SBD,M
Boys,74.84,20,Weston Huff,Three Rivers,73.3,138.35,83.91,142.88,365.14,Single-ply,SBD,M
Boys,74.84,21,Valentin Sanchez,Three Rivers,68.4,133.81,72.57,151.95,358.34,Single-ply,SBD,M
Boys,74.84,22,Poncho Wallace,George West,73.48,117.93,68.04,140.61,326.59,Single-ply,SBD,M
Boys,74.84,23,Tomas Medrano,Kingsville King,70.31,99.79,72.57,138.35,310.71,Single-ply,SBD,M
Boys,74.84,24,Ricardo Garcia,San Diego,72.57,74.84,70.31,120.2,265.35,Single-ply,SBD,M
Boys,74.84,DQ,Gabriel Loera,Alice,74.66,,,,,Single-ply,SBD,M
Boys,82.1,DQ,Nazario Chapa,Aransas Pass,75.02,183.7,,,,Single-ply,SBD,M
Boys,82.1,1,Carlos Charles,Bishop,78.11,226.8,147.42,213.19,587.4,Single-ply,SBD,M
Boys,82.1,2,Arnold Sauceda,Hebbronville,78.38,235.87,122.47,204.12,562.45,Single-ply,SBD,M
Boys,82.1,3,Rene Ramirez,Hebbronville,79.56,176.9,117.93,204.12,498.95,Single-ply,SBD,M
Boys,82.1,4,Jacob Garza,Hebbronville,79.29,197.31,108.86,165.56,471.74,Single-ply,SBD,M
Boys,82.1,5,Rohit Goswami,Kingsville King,77.11,106.59,81.65,165.56,353.8,Single-ply,SBD,M
Boys,82.1,6,John Tanguma,Corpus Christi Calallen,81.28,108.86,86.18,147.42,342.46,Single-ply,SBD,M
Boys,82.1,7,Taylor Molina,Kingsville King,82.1,124.74,63.5,129.27,317.51,Single-ply,SBD,M
Boys,82.1,DQ,Pablo Garcia,Falfurrias,80.47,231.33,,,,Single-ply,SBD,M
Boys,82.1,DQ,Chris Chapa,Corpus Christi Calallen,81.1,138.35,,,,Single-ply,SBD,M
Boys,82.1,DQ,Rey Ferrer,Kingsville King,80.01,161.03,,,,Single-ply,SBD,M
Boys,82.1,DQ,Paul Almendarez,Three Rivers,77.47,165.56,,,,Single-ply,SBD,M
Boys,89.81,1,Warren Oaks,Alice,86.64,229.06,170.1,242.67,641.83,Single-ply,SBD,M
Boys,89.81,2,Jose Moreno,San Diego,89.81,215.46,111.13,226.8,553.38,Single-ply,SBD,M
Boys,89.81,3,Miguel Ortiz,Orange Grove,88,181.44,113.4,197.31,492.15,Single-ply,SBD,M
Boys,89.81,4,Omar Medrano,Kingsville King,86,179.17,113.4,197.31,489.88,Single-ply,SBD,M
Boys,89.81,5,Ryan Lakso,Skidmore-Tynan,89.54,183.7,99.79,206.38,489.88,Single-ply,SBD,M
Boys,89.81,6,Michael Munoz,Bishop,88.45,195.04,99.79,190.51,485.34,Single-ply,SBD,M
Boys,89.81,7,Daniel Herrera,Banquete,87.45,167.83,108.86,204.12,480.81,Single-ply,SBD,M
Boys,89.81,8,Zach Hernandez,Ben Bolt-Palito Blanco,89.72,147.42,106.59,154.22,408.23,Single-ply,SBD,M
Boys,99.79,9,Eliazar Gonzalez,San Diego,89.99,136.08,86.18,147.42,369.68,Single-ply,SBD,M
Boys,89.81,10,Jordan Garcia #5,Corpus Christi Calallen,83.91,127.01,92.99,145.15,365.14,Single-ply,SBD,M
Boys,89.81,DQ,Jacob McDavid,Aransas Pass,83.55,208.65,,,,Single-ply,SBD,M
Boys,89.81,DQ,Gilbert Aguirre,Three Rivers,83.46,,,,,Single-ply,SBD,M
Boys,99.79,1,Matt Garcia,Ben Bolt-Palito Blanco,96.98,272.16,226.8,272.16,771.11,Single-ply,SBD,M
Boys,99.79,2,Blade Bronstad,Corpus Christi Calallen,97.89,272.16,149.69,267.62,689.46,Single-ply,SBD,M
Boys,99.79,3,Andrew Garza,Falfurrias,90.63,251.74,151.95,249.48,653.17,Single-ply,SBD,M
Boys,109.77,4,Miguel Olvera,San Diego,99.84,226.8,154.22,226.8,607.81,Single-ply,SBD,M
Boys,99.79,5,Jason Patterson,Kingsville King,92.8,183.7,115.67,192.78,492.15,Single-ply,SBD,M
Boys,99.79,6,Jose Soliz,Orange Grove,92.44,188.24,124.74,172.37,485.34,Single-ply,SBD,M
Boys,99.79,7,Dalton Wallen,Aransas Pass,94.71,188.24,115.67,181.44,485.34,Single-ply,SBD,M
Boys,99.79,8,Marcos Gutierrez,Hebbronville,96.07,174.63,120.2,170.1,464.93,Single-ply,SBD,M
Boys,99.79,9,Cameron Calvillo,Orange Grove,94.8,188.24,108.86,165.56,462.66,Single-ply,SBD,M
Boys,99.79,10,Erasmo Ortiz,Orange Grove,99.16,183.7,104.33,170.1,458.13,Single-ply,SBD,M
Boys,99.79,11,Nick Avila,Skidmore-Tynan,93.44,115.67,79.38,131.54,326.59,Single-ply,SBD,M
Boys,99.79,DQ,Kolton Kubala,Orange Grove,90.9,172.37,106.59,,,Single-ply,SBD,M
Boys,99.79,DQ,Michael Duenes,Gregory-Portland,98.34,,,,,Single-ply,SBD,M
Boys,99.79,DQ,Victor Lazano,Aransas Pass,96.52,165.56,,,,Single-ply,SBD,M
Boys,109.77,DQ,John Rivera,Alice,99.88,274.42,,,,Single-ply,SBD,M
Boys,99.79,DQ,Weston Juelg,Corpus Christi Calallen,95.98,,,,,Single-ply,SBD,M
Boys,99.79,DQ,Michael Cortinas,George West,93.8,190.51,,,,Single-ply,SBD,M
Boys,109.77,1,Dakota Cooksy,Corpus Christi Calallen,108.5,294.84,185.97,272.16,752.96,Single-ply,SBD,M
Boys,109.77,2,Kasey Hosey,Robstown,109.04,172.37,133.81,222.26,528.44,Single-ply,SBD,M
Boys,109.77,3,Robert Vargas,Hebbronville,100.33,192.78,122.47,195.04,510.29,Single-ply,SBD,M
Boys,109.77,4,Nathaniel Caskie,Corpus Christi Calallen,108.05,208.65,102.06,190.51,501.22,Single-ply,SBD,M
Boys,109.77,5,Cody Dablestein,Corpus Christi Calallen,106.59,167.83,138.35,172.37,478.54,Single-ply,SBD,M
Boys,109.77,6,Miguel Davila,Falfurrias,101.33,165.56,102.06,174.63,442.25,Single-ply,SBD,M
Boys,109.77,7,Daniel Vela,Falfurrias,100.52,151.95,102.06,172.37,426.38,Single-ply,SBD,M
Boys,109.77,8,Roman Garcia #2,Freer,103.24,124.74,63.5,133.81,322.05,Single-ply,SBD,M
Boys,109.77,DQ,Ruben Casas,Falfurrias,100.24,,,,,Single-ply,SBD,M
Boys,109.77,DQ,Andrew Pena,Robstown,106.41,,,,,Single-ply,SBD,M
Boys,109.77,DQ,Richard Lichtenberger,Freer,108.59,,,,,Single-ply,SBD,M
Boys,109.77,DQ,Lee Cook,Ben Bolt-Palito Blanco,108.32,272.16,,,,Single-ply,SBD,M
Boys,109.77,DQ,Andres Arvizu,Alice,108.23,,,,,Single-ply,SBD,M
Boys,124.74,1,Aaron Gutierrez,Kingsville King,112.13,229.06,147.42,192.78,569.26,Single-ply,SBD,M
Boys,124.74,2,Leo Gonzalez,Robstown,113.94,215.46,136.08,204.12,555.65,Single-ply,SBD,M
Boys,124.74,3,Isaac Salinas #1,Gregory-Portland,115.67,210.92,140.61,195.04,546.58,Single-ply,SBD,M
Boys,124.74,4,William Withers,Gregory-Portland,122.56,204.12,120.2,183.7,508.02,Single-ply,SBD,M
Boys,124.74,5,Nicholas Zapata,Bishop,121.83,190.51,113.4,172.37,476.27,Single-ply,SBD,M
Boys,124.74,6,Jose Marquez,Hebbronville,113.58,158.76,90.72,170.1,419.57,Single-ply,SBD,M
Boys,124.74,7,Seth Watts,Gregory-Portland,115.21,142.88,92.99,149.69,385.55,Single-ply,SBD,M
Boys,124.74,DQ,Jose Villarreal,Skidmore-Tynan,111.95,,,,,Single-ply,SBD,M
Boys,124.74,DQ,Juan Macias,Alice,123.74,269.89,,,,Single-ply,SBD,M
Boys,124.74+,1,Lance McDonald,Robstown,144.06,226.8,151.95,231.33,610.08,Single-ply,SBD,M
Boys,124.74+,2,Jonathan Lopez,Banquete,130.82,219.99,154.22,195.04,569.26,Single-ply,SBD,M
Boys,124.74+,3,Alexander Acosta,Skidmore-Tynan,127.19,192.78,136.08,226.8,555.65,Single-ply,SBD,M
Boys,124.74+,4,Manuel Gonzalez,Ben Bolt-Palito Blanco,134.72,147.42,124.74,179.17,451.32,Single-ply,SBD,M
Boys,124.74+,5,Joe Rodriguez,Kingsville King,128.73,156.49,108.86,156.49,421.84,Single-ply,SBD,M
Boys,124.74+,6,Justin Lopez,Ben Bolt-Palito Blanco,133.36,147.42,92.99,158.76,399.16,Single-ply,SBD,M
Boys,124.74+,DQ,Jesse James Saldivar,Alice,135.44,154.22,124.74,,,Single-ply,SBD,M
Boys,124.74+,DQ,Justin Ortiz,Agua Dulce,129.73,,,,,Single-ply,SBD,M
Boys,124.74+,DQ,Angel Salinas,Orange Grove,136.62,,,,,Single-ply,SBD,M
Boys,124.74+,DQ,Ryan Jimenez,Skidmore-Tynan,131.72,,,,,Single-ply,SBD,M
Boys,124.74+,DQ,Jonathan Turner,Three Rivers,141.88,,,,,Single-ply,SBD,M
Boys,124.74+,DQ,Trey Cantu,Skidmore-Tynan,128.55,195.04,,,,Single-ply,SBD,M
