﻿BDFPF BK - CHAMP BEL  POWERLIFTING   2013
                                                                 BK. Powerlifting Equipped 8 Dec  2013
                                                                                                                                    BW            SQ     BE     DL           TOT     POINTS
1                                    1      - 80 KG Dechamps     Nadege                                  Castors          17   T2   79,6    200   122,5              170     492,5   340,37
1                                    1      52 KG De Lauw        Luc                                     Planet Fitness   48   M2   51,6    110   90                 125,5   325     312,03
2                                    1      52 KG Devos          Lorenzo                                 Body 2 Fit       16   T2   52,0    60    47,5               100     207,5   197,44
1                                    1      60 KG Devos          Gillian                                 Body 2 Fit       14   T1   57,6    80    55                 130     265     224,83
1                                    1      67,5 KG Vanhee       Emmerick                                Isogym           23   JR   67,4    145   152,5              195     492,5   357,95
OUT                                         67,5 KG Devos        Kurt                                    Body 2 Fit       42   M1   64,8    105   0                  0       0       0,00
1                                    1      75 KG Thirth         Ram                                     Dynamic Gym      40   M1   73,8    215   150                253     617,5   415,58
2                                    2      75 KG Hallewaert     Bart                                    Isogym           44   M1   74,9    205   135                215     555     369,19
3                                    1      75 KG Jacmart        Jeremy                                  Castors          22   JR   74,7    195   137,5              192,5   525     349,97
1                                    1      82,5 KG Sudarminto   Indra                                   Planet Fitness   22   JR   77,4    300   175                267,5   742,5   481,59
2                                    2      82,5 KG Soenens      Gillis                                  Isogym           23   JR   81,1    200   155                215     570     357,28
3                                    1      82,5 KG Remy         Roger                                   Castors          60   M5   77,7    210   120                230     560     362,15
1                                    1      90 KG Peeters        Alan                                    Gilberts Gym     19   T3   85,5    270   152,5              277,5   700     423,15
2                                    1      90 KG Verbeke        Beny                                    Isogym           48   M2   86,9    255   135                300     690     412,76
3                                    1      90 KG Theyssens      Martin                                  Patton Team      74   M7   85,5    120   102,5              140     362,5   219,13
1                                    1      100 KG Vermandere    Thomas                                  Isogym           23   JR   92,5    200   170                220     590     339,90
1                                    1      110 KG Vermote       Gianni                                  Isogym           41   M1   105,1   290   180                255,5   725     394,11
                                                                                                                                            300
1                                    1      145 KG Dechamps      Sebastien                               Castors          20   JR   131,7   350   235                292,5   877,5   450,16
2                                    1      145 KG Dechamps      Jerome                                  Castors          25   SR   132,5   350   235                275     860     440,32
Nat Record
European Record
World Record
Best Lifter
Drugtested
08 DEC 2013,Florennes
