﻿Ergebnisse "Ostdeutsche Meisterschaft" im Bankdrücken, 8. November 2009 / Berlin
Klasse                                                                             Platzierung   Name                    Körpergew.   1. Versuch   2. Versuch   3. Versuch  Gesamtpkt.
Frauen
Aktive bis 39 Jahre                                                                1. Platz      Anne Schilling          63,0 kg      62,5 kg      67,5 kg      72,5 kg                  115,76
                                                                                   2. Platz      Irina Schmalz           57,9 kg      50,0 kg      55,0 kg      57,5 kg                  106,94
                                                                                   3. Platz      Annett von der Weppen   83,0 kg      62,5 kg      67,5 kg      72,5 kg                  106,64
Master III ab 60 Jahre                                                             1. Platz      Ingrid Cedel            59,1 kg      45,0 kg      50,0 kg      55,0 kg                  99,44
Männer
Junioren
bis 23 Jahre
Leichtgewicht -75kg                                                                1. Platz      Sebastian Hippe         72,0 kg      110,0 kg     115,0 kg     117,5 kg                 43,00
Mittelgewicht -95kg                                                                1. Platz      Thomas Kusche           87,5 kg      150,0 kg     152,5 kg     155,0 kg                 65,00
                                                                                   2. Platz      Denny Linsdorf          86,0 kg      140,0 kg     147,5 kg     152,5 kg                 61,50
                                                                                   3. Platz      Sebastian Krohnfot      90,5 kg      120,0 kg     125,0 kg     125,0 kg                 29,50
Schwergewicht -115kg                                                               1. Platz      Lars Jenjahn            99,5 kg      160,0 kg     170,0 kg     180,0 kg                 80,50
                                                                                   2. Platz      Henry Kurze             98,0 kg      150,0 kg     165,0 kg     177,5 kg                 79,50
                                                                                   3. Platz      Stefan Schubert         96,5 kg      147,5 kg     150,0 kg     150,0 kg                 51,00
                                                                                   ----          Robert Martin           95,5 kg      155,0 kg     155,0 kg     155,0 kg                 0,00
Aktive bis 39 Jahre
Leichtgewicht -75kg                                                                1. Platz      Tobias Limpächer        68,5 kg      110,0 kg     117,5 kg     122,5 kg                 54,00
Mittelgewicht -95kg                                                                1. Platz      Maxim Kutuzov           84,5 kg      155,0 kg     165,0 kg     172,5 kg                 88,00
                                                                                   2. Platz      Silvio Schulz           87,4 kg      160,0 kg     175,0 kg     182,5 kg                 87,60
                                                                                   3. Platz      Dirk Spaude             89,0 kg      150,0 kg     160,0 kg     170,0 kg                 81,00
Schwergewicht -115kg                                                               1. Platz      Stefan Fecken           112,9 kg     220,0 kg     225,0 kg     230,0 kg                 112,10
                                                                                   2. Platz      Lars Göhler             109,0 kg     185,0 kg     195,0 kg     200,0 kg                 91,00
Superschwergewicht +115kg                                                          1. Platz      Danny Schmalz           127,4 kg     200,0 kg     205,0 kg     210,0 kg                 82,60
                                                                                   2. Platz      Johannes Luckas         123,0 kg     190,0 kg     200,0 kg     205,0 kg                 82,00
                                                                                   3. Platz      Andre Lange             118,7 kg     190,0 kg     200,0 kg     210,0 kg                 81,30
                                                                                   4. Platz      Matthias Dietz          115,8 kg     160,0 kg     170,0 kg     182,5 kg                 54,20
                                                                                   5. Platz      Sven Wetzel             126,0 kg     150,0 kg     160,0 kg     170,0 kg                 44,00

Masters I ab 40 Jahre
Mittelgewicht -95kg                                    1. Platz         Torsten Jaap          88,0 kg    155,0 kg   160,0 kg   165,0 kg   77,00
                                                       2. Platz         Otto Ostermeyer       88,9 kg    150,0 kg   157,5 kg   162,5 kg   73,60
Schwergewicht -115kg                                   1. Platz         Frank Leiyng          112,5 kg   200,0 kg   210,0 kg   217,5 kg   105,00 DR
                                                       2. Platz         Holger Stern          99,0 kg    165,0 kg   172,5 kg   175,0 kg   76,00
Masters II ab 50 Jahre
Mittelgewicht -95kg                                    1. Platz         Kurt Schoula          94,3 kg    160,0 kg   167,5 kg   170,0 kg   73,20 DR
Schwergewicht -115kg                                   1. Platz         Waldemar Arnold       102,0 kg   120,0 kg   125,0 kg   130,0 kg   28,00
Masters III ab 60 Jahre
Leichtgewicht -75kg                                    1. Platz         Gerd Cedel            68,0 kg    82,5 kg    87,5 kg    92,5 kg    24,50 DR
                                                       2. Platz         Burkhardt Krohn       74,8 kg    80,0 kg    85,0 kg    92,5 kg    17,70
Mittelgewicht -95kg                                    1. Platz         Gerd Rickershenrich   90,0 kg    100,0 kg   105,0 kg   107,5 kg   17,50
Gesamtsieger / nach Relativpunkten, Reshel - Tabelle
Frauen:                                                Anne Schilling
Junioren:                                              Lars Jenjahn
Aktive:                                                Stefan Fecken
Masters:                                               Frank Leiyng
